[INFO  So 09 Apr 2023 09:19:47 CEST] ...e/nvim/lazy/mason.nvim/lua/mason-core/installer/init.lua:166: Executing installer for Package(name=lua-language-server) {}
[INFO  So 09 Apr 2023 09:19:48 CEST] ...e/nvim/lazy/mason.nvim/lua/mason-core/installer/init.lua:193: Installation succeeded for Package(name=lua-language-server)
[INFO  Di 11 Apr 2023 00:42:13 CEST] ...e/nvim/lazy/mason.nvim/lua/mason-core/installer/init.lua:166: Executing installer for Package(name=jedi-language-server) {}
[INFO  Di 11 Apr 2023 00:42:18 CEST] ...e/nvim/lazy/mason.nvim/lua/mason-core/installer/init.lua:166: Executing installer for Package(name=flake8) {}
[INFO  Di 11 Apr 2023 00:42:19 CEST] ...e/nvim/lazy/mason.nvim/lua/mason-core/installer/init.lua:193: Installation succeeded for Package(name=jedi-language-server)
[INFO  Di 11 Apr 2023 00:42:22 CEST] ...e/nvim/lazy/mason.nvim/lua/mason-core/installer/init.lua:193: Installation succeeded for Package(name=flake8)
[INFO  Di 11 Apr 2023 00:42:26 CEST] ...e/nvim/lazy/mason.nvim/lua/mason-core/installer/init.lua:166: Executing installer for Package(name=pylint) {}
[INFO  Di 11 Apr 2023 00:42:32 CEST] ...e/nvim/lazy/mason.nvim/lua/mason-core/installer/init.lua:193: Installation succeeded for Package(name=pylint)
[INFO  Di 11 Apr 2023 00:42:33 CEST] ...e/nvim/lazy/mason.nvim/lua/mason-core/installer/init.lua:166: Executing installer for Package(name=semgrep) {}
[INFO  Di 11 Apr 2023 00:43:07 CEST] ...e/nvim/lazy/mason.nvim/lua/mason-core/installer/init.lua:193: Installation succeeded for Package(name=semgrep)
[INFO  Di 11 Apr 2023 00:43:11 CEST] ...e/nvim/lazy/mason.nvim/lua/mason-core/installer/init.lua:166: Executing installer for Package(name=ansible-language-server) {}
[ERROR Di 11 Apr 2023 00:43:11 CEST] ...e/nvim/lazy/mason.nvim/lua/mason-core/installer/init.lua:200: Installation failed for Package(name=ansible-language-server) error=spawn: npm failed with exit code - and signal -. npm is not executable
[INFO  Di 11 Apr 2023 00:43:13 CEST] ...e/nvim/lazy/mason.nvim/lua/mason-core/installer/init.lua:166: Executing installer for Package(name=ansible-lint) {}
[INFO  Di 11 Apr 2023 00:43:24 CEST] ...e/nvim/lazy/mason.nvim/lua/mason-core/installer/init.lua:193: Installation succeeded for Package(name=ansible-lint)
[INFO  Di 11 Apr 2023 00:43:46 CEST] ...e/nvim/lazy/mason.nvim/lua/mason-core/installer/init.lua:166: Executing installer for Package(name=ansible-language-server) {}
[ERROR Di 11 Apr 2023 00:43:46 CEST] ...e/nvim/lazy/mason.nvim/lua/mason-core/installer/init.lua:200: Installation failed for Package(name=ansible-language-server) error=spawn: npm failed with exit code - and signal -. npm is not executable
[INFO  Di 11 Apr 2023 00:45:48 CEST] ...e/nvim/lazy/mason.nvim/lua/mason-core/installer/init.lua:166: Executing installer for Package(name=ansible-language-server) {}
[INFO  Di 11 Apr 2023 00:45:57 CEST] ...e/nvim/lazy/mason.nvim/lua/mason-core/installer/init.lua:193: Installation succeeded for Package(name=ansible-language-server)
[INFO  Di 11 Apr 2023 00:46:21 CEST] ...e/nvim/lazy/mason.nvim/lua/mason-core/installer/init.lua:166: Executing installer for Package(name=jq) {}
[INFO  Di 11 Apr 2023 00:46:22 CEST] ...e/nvim/lazy/mason.nvim/lua/mason-core/installer/init.lua:193: Installation succeeded for Package(name=jq)
[INFO  Di 11 Apr 2023 00:46:29 CEST] ...e/nvim/lazy/mason.nvim/lua/mason-core/installer/init.lua:166: Executing installer for Package(name=prettier) {}
[INFO  Di 11 Apr 2023 00:46:31 CEST] ...e/nvim/lazy/mason.nvim/lua/mason-core/installer/init.lua:193: Installation succeeded for Package(name=prettier)
[INFO  Di 11 Apr 2023 00:46:41 CEST] ...e/nvim/lazy/mason.nvim/lua/mason-core/installer/init.lua:166: Executing installer for Package(name=spectral-language-server) {}
[INFO  Di 11 Apr 2023 00:47:25 CEST] ...e/nvim/lazy/mason.nvim/lua/mason-core/installer/init.lua:166: Executing installer for Package(name=yaml-language-server) {}
[INFO  Di 11 Apr 2023 00:47:28 CEST] ...e/nvim/lazy/mason.nvim/lua/mason-core/installer/init.lua:193: Installation succeeded for Package(name=yaml-language-server)
[INFO  Di 11 Apr 2023 00:47:34 CEST] ...e/nvim/lazy/mason.nvim/lua/mason-core/installer/init.lua:166: Executing installer for Package(name=yamllint) {}
[INFO  Di 11 Apr 2023 00:47:38 CEST] ...e/nvim/lazy/mason.nvim/lua/mason-core/installer/init.lua:193: Installation succeeded for Package(name=yamllint)
[INFO  Di 11 Apr 2023 00:48:45 CEST] ...e/nvim/lazy/mason.nvim/lua/mason-core/installer/init.lua:193: Installation succeeded for Package(name=spectral-language-server)
[INFO  Di 11 Apr 2023 00:48:50 CEST] ...e/nvim/lazy/mason.nvim/lua/mason-core/installer/init.lua:166: Executing installer for Package(name=bash-language-server) {}
[INFO  Di 11 Apr 2023 00:48:53 CEST] ...e/nvim/lazy/mason.nvim/lua/mason-core/installer/init.lua:193: Installation succeeded for Package(name=bash-language-server)
[INFO  Di 11 Apr 2023 00:48:56 CEST] ...e/nvim/lazy/mason.nvim/lua/mason-core/installer/init.lua:166: Executing installer for Package(name=shellcheck) {}
[INFO  Di 11 Apr 2023 00:48:57 CEST] ...e/nvim/lazy/mason.nvim/lua/mason-core/installer/init.lua:193: Installation succeeded for Package(name=shellcheck)
[INFO  Di 11 Apr 2023 00:49:37 CEST] ...e/nvim/lazy/mason.nvim/lua/mason-core/installer/init.lua:166: Executing installer for Package(name=djlint) {}
[INFO  Di 11 Apr 2023 00:49:47 CEST] ...e/nvim/lazy/mason.nvim/lua/mason-core/installer/init.lua:193: Installation succeeded for Package(name=djlint)
[INFO  Di 11 Apr 2023 00:50:09 CEST] ...e/nvim/lazy/mason.nvim/lua/mason-core/installer/init.lua:166: Executing installer for Package(name=golangci-lint-langserver) {}
[INFO  Di 11 Apr 2023 00:50:14 CEST] ...e/nvim/lazy/mason.nvim/lua/mason-core/installer/init.lua:193: Installation succeeded for Package(name=golangci-lint-langserver)
[INFO  Di 11 Apr 2023 00:50:20 CEST] ...e/nvim/lazy/mason.nvim/lua/mason-core/installer/init.lua:166: Executing installer for Package(name=golangci-lint) {}
[INFO  Di 11 Apr 2023 00:50:22 CEST] ...e/nvim/lazy/mason.nvim/lua/mason-core/installer/init.lua:193: Installation succeeded for Package(name=golangci-lint)
[INFO  Di 11 Apr 2023 00:51:15 CEST] ...e/nvim/lazy/mason.nvim/lua/mason-core/installer/init.lua:166: Executing installer for Package(name=grammarly-languageserver) {}
[INFO  Di 11 Apr 2023 00:51:22 CEST] ...e/nvim/lazy/mason.nvim/lua/mason-core/installer/init.lua:193: Installation succeeded for Package(name=grammarly-languageserver)
[INFO  Di 11 Apr 2023 00:51:32 CEST] ...e/nvim/lazy/mason.nvim/lua/mason-core/installer/init.lua:166: Executing installer for Package(name=markdownlint) {}
[INFO  Di 11 Apr 2023 00:51:35 CEST] ...e/nvim/lazy/mason.nvim/lua/mason-core/installer/init.lua:193: Installation succeeded for Package(name=markdownlint)
[INFO  Di 11 Apr 2023 00:52:16 CEST] ...e/nvim/lazy/mason.nvim/lua/mason-core/installer/init.lua:166: Executing installer for Package(name=beautysh) {}
[INFO  Di 11 Apr 2023 00:52:20 CEST] ...e/nvim/lazy/mason.nvim/lua/mason-core/installer/init.lua:193: Installation succeeded for Package(name=beautysh)
